\relax 
\citation{Rajapakse:2007}
\citation{Martin:2011}
\citation{Muhammad2013}
\citation{Rajapakse:2005}
\citation{Rajapakse:2007}
\citation{Martin:2011}
\citation{Muhammad2013}
\citation{Rajapakse:2007}
\citation{Muhammad2013}
\citation{Rajapakse:2007}
\citation{Yoshida:2005}
\citation{Kraft_etal:2008}
\citation{Muhammad2013}
\@writefile{toc}{\contentsline {section}{\numberline {I}Motivation}{1}}
\@writefile{toc}{\contentsline {section}{\numberline {II}Research Challenges}{1}}
\citation{Roy:2009}
\citation{Roy:2009}
\bibstyle{abbrv}
\bibdata{reference}
\bibcite{Kraft_etal:2008}{1}
\bibcite{Martin:2011}{2}
\bibcite{Muhammad2013}{3}
\bibcite{Rajapakse:2005}{4}
\bibcite{Rajapakse:2007}{5}
\bibcite{Roy:2009}{6}
\@writefile{lof}{\contentsline {figure}{\numberline {1}{\ignorespaces An Example of Clone Pair in the Web Application \relax }}{2}}
\providecommand*\caption@xref[2]{\@setref\relax\@undefined{#1}}
\newlabel{example}{{1}{2}}
\@writefile{toc}{\contentsline {section}{References}{2}}
\bibcite{Yoshida:2005}{7}
